Nov 17, 2020 3:39:41 AM org.apache.beam.examples.subprocess.utils.CallingSubProcessUtils initSemaphore
INFO: Initialized Semaphore for binary test-Echo5274601581570585315.sh 
Nov 17, 2020 3:39:46 AM org.apache.beam.examples.subprocess.utils.CallingSubProcessUtils setUp
INFO: Calling filesetup to move Executables to worker.
Nov 17, 2020 3:39:46 AM org.apache.beam.examples.subprocess.utils.FileUtils copyFileFromGCSToWorker
INFO: Moving File /tmp/test-Echo5274601581570585315.sh to /tmp/test-Echoo8085946142088089535/test-Echo5274601581570585315.sh 
Nov 17, 2020 3:39:53 AM org.apache.beam.examples.subprocess.utils.CallingSubProcessUtils initSemaphore
INFO: Initialized Semaphore for binary test-EchoAgain7791505425767439868.sh 
Nov 17, 2020 3:39:53 AM org.apache.beam.examples.subprocess.utils.CallingSubProcessUtils setUp
INFO: Calling filesetup to move Executables to worker.
Nov 17, 2020 3:39:53 AM org.apache.beam.examples.subprocess.utils.FileUtils copyFileFromGCSToWorker
INFO: Moving File /tmp/test-EchoAgain7791505425767439868.sh to /tmp/test-Echoo8085946142088089535/test-EchoAgain7791505425767439868.sh 
