<?xml version="1.0" encoding="UTF-8"?>
<testsuite xmlns:xsi="http://www.w3.org/2001/XMLSchema-instance" xsi:noNamespaceSchemaLocation="https://maven.apache.org/surefire/maven-surefire-plugin/xsd/surefire-test-report-3.0.xsd" version="3.0" name="org.apache.beam.examples.complete.game.LeaderBoardTest" time="23.277" tests="7" errors="0" skipped="0" failures="0">
  <properties>
    <property name="awt.toolkit" value="sun.awt.X11.XToolkit"/>
    <property name="file.encoding.pkg" value="sun.io"/>
    <property name="java.specification.version" value="1.8"/>
    <property name="sun.cpu.isalist" value=""/>
    <property name="sun.jnu.encoding" value="UTF-8"/>
    <property name="java.class.path" value="/app/my-app/target/test-classes:/app/my-app/target/classes:/root/.m2/repository/org/apache/beam/beam-sdks-java-core/2.25.0/beam-sdks-java-core-2.25.0.jar:/root/.m2/repository/org/apache/beam/beam-model-pipeline/2.25.0/beam-model-pipeline-2.25.0.jar:/root/.m2/repository/com/google/errorprone/error_prone_annotations/2.3.3/error_prone_annotations-2.3.3.jar:/root/.m2/repository/commons-logging/commons-logging/1.2/commons-logging-1.2.jar:/root/.m2/repository/org/apache/logging/log4j/log4j-api/2.6.2/log4j-api-2.6.2.jar:/root/.m2/repository/org/conscrypt/conscrypt-openjdk-uber/1.3.0/conscrypt-openjdk-uber-1.3.0.jar:/root/.m2/repository/org/apache/beam/beam-model-job-management/2.25.0/beam-model-job-management-2.25.0.jar:/root/.m2/repository/org/apache/beam/beam-vendor-bytebuddy-1_10_8/0.1/beam-vendor-bytebuddy-1_10_8-0.1.jar:/root/.m2/repository/org/apache/beam/beam-vendor-grpc-1_26_0/0.3/beam-vendor-grpc-1_26_0-0.3.jar:/root/.m2/repository/org/apache/beam/beam-vendor-guava-26_0-jre/0.1/beam-vendor-guava-26_0-jre-0.1.jar:/root/.m2/repository/com/google/code/findbugs/jsr305/3.0.2/jsr305-3.0.2.jar:/root/.m2/repository/com/fasterxml/jackson/core/jackson-core/2.10.2/jackson-core-2.10.2.jar:/root/.m2/repository/com/fasterxml/jackson/core/jackson-annotations/2.10.2/jackson-annotations-2.10.2.jar:/root/.m2/repository/com/fasterxml/jackson/core/jackson-databind/2.10.2/jackson-databind-2.10.2.jar:/root/.m2/repository/org/apache/avro/avro/1.8.2/avro-1.8.2.jar:/root/.m2/repository/org/codehaus/jackson/jackson-core-asl/1.9.13/jackson-core-asl-1.9.13.jar:/root/.m2/repository/org/codehaus/jackson/jackson-mapper-asl/1.9.13/jackson-mapper-asl-1.9.13.jar:/root/.m2/repository/com/thoughtworks/paranamer/paranamer/2.7/paranamer-2.7.jar:/root/.m2/repository/org/apache/commons/commons-compress/1.8.1/commons-compress-1.8.1.jar:/root/.m2/repository/org/xerial/snappy/snappy-java/1.1.4/snappy-java-1.1.4.jar:/root/.m2/repository/org/tukaani/xz/1.8/xz-1.8.jar:/root/.m2/repository/org/apache/beam/beam-sdks-java-io-google-cloud-platform/2.25.0/beam-sdks-java-io-google-cloud-platform-2.25.0.jar:/root/.m2/repository/org/apache/beam/beam-sdks-java-expansion-service/2.25.0/beam-sdks-java-expansion-service-2.25.0.jar:/root/.m2/repository/org/apache/beam/beam-model-fn-execution/2.25.0/beam-model-fn-execution-2.25.0.jar:/root/.m2/repository/org/apache/beam/beam-sdks-java-extensions-google-cloud-platform-core/2.25.0/beam-sdks-java-extensions-google-cloud-platform-core-2.25.0.jar:/root/.m2/repository/com/google/cloud/bigdataoss/gcsio/2.1.5/gcsio-2.1.5.jar:/root/.m2/repository/com/google/apis/google-api-services-cloudresourcemanager/v1-rev20200720-1.30.10/google-api-services-cloudresourcemanager-v1-rev20200720-1.30.10.jar:/root/.m2/repository/org/apache/beam/beam-sdks-java-extensions-protobuf/2.25.0/beam-sdks-java-extensions-protobuf-2.25.0.jar:/root/.m2/repository/com/google/cloud/bigdataoss/util/2.1.5/util-2.1.5.jar:/root/.m2/repository/com/google/api-client/google-api-client-java6/1.30.10/google-api-client-java6-1.30.10.jar:/root/.m2/repository/com/google/api-client/google-api-client-jackson2/1.30.10/google-api-client-jackson2-1.30.10.jar:/root/.m2/repository/com/google/apis/google-api-services-iamcredentials/v1-rev20200821-1.30.10/google-api-services-iamcredentials-v1-rev20200821-1.30.10.jar:/root/.m2/repository/com/google/auto/value/auto-value-annotations/1.7.4/auto-value-annotations-1.7.4.jar:/root/.m2/repository/com/google/oauth-client/google-oauth-client-java6/1.31.0/google-oauth-client-java6-1.31.0.jar:/root/.m2/repository/com/google/flogger/google-extensions/0.5.1/google-extensions-0.5.1.jar:/root/.m2/repository/com/google/flogger/flogger-system-backend/0.5.1/flogger-system-backend-0.5.1.jar:/root/.m2/repository/com/google/api/gax/1.57.1/gax-1.57.1.jar:/root/.m2/repository/org/threeten/threetenbp/1.4.1/threetenbp-1.4.1.jar:/root/.m2/repository/com/google/api/api-common/1.9.3/api-common-1.9.3.jar:/root/.m2/repository/com/google/api/gax-grpc/1.57.1/gax-grpc-1.57.1.jar:/root/.m2/repository/io/grpc/grpc-protobuf/1.30.0/grpc-protobuf-1.30.0.jar:/root/.m2/repository/com/google/apis/google-api-services-healthcare/v1beta1-rev20200713-1.30.10/google-api-services-healthcare-v1beta1-rev20200713-1.30.10.jar:/root/.m2/repository/com/google/auth/google-auth-library-credentials/0.19.0/google-auth-library-credentials-0.19.0.jar:/root/.m2/repository/com/google/auth/google-auth-library-oauth2-http/0.19.0/google-auth-library-oauth2-http-0.19.0.jar:/root/.m2/repository/com/google/cloud/google-cloud-bigquerystorage/0.125.0-beta/google-cloud-bigquerystorage-0.125.0-beta.jar:/root/.m2/repository/com/google/api/grpc/proto-google-cloud-bigquerystorage-v1alpha2/0.90.0/proto-google-cloud-bigquerystorage-v1alpha2-0.90.0.jar:/root/.m2/repository/com/google/api/grpc/proto-google-cloud-bigquerystorage-v1beta2/0.90.0/proto-google-cloud-bigquerystorage-v1beta2-0.90.0.jar:/root/.m2/repository/com/google/api/grpc/proto-google-cloud-bigquerystorage-v1/0.90.0/proto-google-cloud-bigquerystorage-v1-0.90.0.jar:/root/.m2/repository/com/google/cloud/google-cloud-bigquery/1.106.0/google-cloud-bigquery-1.106.0.jar:/root/.m2/repository/com/google/cloud/bigtable/bigtable-client-core/1.16.0/bigtable-client-core-1.16.0.jar:/root/.m2/repository/com/google/cloud/google-cloud-bigtable/1.14.0/google-cloud-bigtable-1.14.0.jar:/root/.m2/repository/com/google/api/grpc/grpc-google-common-protos/1.18.0/grpc-google-common-protos-1.18.0.jar:/root/.m2/repository/com/google/api/grpc/grpc-google-cloud-bigtable-v2/1.14.0/grpc-google-cloud-bigtable-v2-1.14.0.jar:/root/.m2/repository/com/google/api/grpc/proto-google-cloud-bigtable-admin-v2/1.14.0/proto-google-cloud-bigtable-admin-v2-1.14.0.jar:/root/.m2/repository/com/google/api/grpc/grpc-google-cloud-bigtable-admin-v2/1.14.0/grpc-google-cloud-bigtable-admin-v2-1.14.0.jar:/root/.m2/repository/com/google/api/grpc/proto-google-iam-v1/0.13.0/proto-google-iam-v1-0.13.0.jar:/root/.m2/repository/com/google/cloud/google-cloud-core-http/1.93.7/google-cloud-core-http-1.93.7.jar:/root/.m2/repository/com/google/http-client/google-http-client-appengine/1.36.0/google-http-client-appengine-1.36.0.jar:/root/.m2/repository/com/google/api/gax-httpjson/0.74.1/gax-httpjson-0.74.1.jar:/root/.m2/repository/com/google/protobuf/protobuf-java-util/3.12.2/protobuf-java-util-3.12.2.jar:/root/.m2/repository/io/opencensus/opencensus-contrib-grpc-util/0.24.0/opencensus-contrib-grpc-util-0.24.0.jar:/root/.m2/repository/io/dropwizard/metrics/metrics-core/3.2.6/metrics-core-3.2.6.jar:/root/.m2/repository/commons-codec/commons-codec/1.14/commons-codec-1.14.jar:/root/.m2/repository/com/google/cloud/google-cloud-core/1.93.7/google-cloud-core-1.93.7.jar:/root/.m2/repository/com/google/cloud/google-cloud-core-grpc/1.93.7/google-cloud-core-grpc-1.93.7.jar:/root/.m2/repository/com/google/cloud/datastore/datastore-v1-proto-client/1.6.3/datastore-v1-proto-client-1.6.3.jar:/root/.m2/repository/com/google/http-client/google-http-client-protobuf/1.33.0/google-http-client-protobuf-1.33.0.jar:/root/.m2/repository/com/google/cloud/google-cloud-pubsublite/0.1.6/google-cloud-pubsublite-0.1.6.jar:/root/.m2/repository/com/google/code/gson/gson/2.8.6/gson-2.8.6.jar:/root/.m2/repository/org/codehaus/mojo/animal-sniffer-annotations/1.18/animal-sniffer-annotations-1.18.jar:/root/.m2/repository/com/google/android/annotations/4.1.1.4/annotations-4.1.1.4.jar:/root/.m2/repository/io/perfmark/perfmark-api/0.19.0/perfmark-api-0.19.0.jar:/root/.m2/repository/com/google/cloud/google-cloud-pubsub/1.105.0/google-cloud-pubsub-1.105.0.jar:/root/.m2/repository/io/grpc/grpc-protobuf-lite/1.29.0/grpc-protobuf-lite-1.29.0.jar:/root/.m2/repository/org/apache/commons/commons-lang3/3.5/commons-lang3-3.5.jar:/root/.m2/repository/com/google/flogger/flogger/0.5.1/flogger-0.5.1.jar:/root/.m2/repository/javax/annotation/javax.annotation-api/1.3.2/javax.annotation-api-1.3.2.jar:/root/.m2/repository/com/google/guava/failureaccess/1.0.1/failureaccess-1.0.1.jar:/root/.m2/repository/com/google/guava/listenablefuture/9999.0-empty-to-avoid-conflict-with-guava/listenablefuture-9999.0-empty-to-avoid-conflict-with-guava.jar:/root/.m2/repository/org/checkerframework/checker-compat-qual/2.5.5/checker-compat-qual-2.5.5.jar:/root/.m2/repository/com/google/cloud/google-cloud-spanner/1.59.0/google-cloud-spanner-1.59.0.jar:/root/.m2/repository/com/google/api/grpc/proto-google-cloud-spanner-admin-instance-v1/1.59.0/proto-google-cloud-spanner-admin-instance-v1-1.59.0.jar:/root/.m2/repository/com/google/api/grpc/proto-google-cloud-spanner-v1/1.59.0/proto-google-cloud-spanner-v1-1.59.0.jar:/root/.m2/repository/com/google/http-client/google-http-client-jackson2/1.34.0/google-http-client-jackson2-1.34.0.jar:/root/.m2/repository/io/grpc/grpc-alts/1.27.2/grpc-alts-1.27.2.jar:/root/.m2/repository/io/grpc/grpc-auth/1.27.2/grpc-auth-1.27.2.jar:/root/.m2/repository/io/grpc/grpc-api/1.27.2/grpc-api-1.27.2.jar:/root/.m2/repository/io/grpc/grpc-core/1.27.2/grpc-core-1.27.2.jar:/root/.m2/repository/io/grpc/grpc-context/1.27.2/grpc-context-1.27.2.jar:/root/.m2/repository/io/grpc/grpc-grpclb/1.27.2/grpc-grpclb-1.27.2.jar:/root/.m2/repository/io/grpc/grpc-netty/1.27.2/grpc-netty-1.27.2.jar:/root/.m2/repository/io/netty/netty-codec-http2/4.1.42.Final/netty-codec-http2-4.1.42.Final.jar:/root/.m2/repository/io/netty/netty-codec-http/4.1.42.Final/netty-codec-http-4.1.42.Final.jar:/root/.m2/repository/io/netty/netty-handler-proxy/4.1.42.Final/netty-handler-proxy-4.1.42.Final.jar:/root/.m2/repository/io/netty/netty-codec-socks/4.1.42.Final/netty-codec-socks-4.1.42.Final.jar:/root/.m2/repository/io/grpc/grpc-netty-shaded/1.27.2/grpc-netty-shaded-1.27.2.jar:/root/.m2/repository/io/grpc/grpc-stub/1.27.2/grpc-stub-1.27.2.jar:/root/.m2/repository/com/google/api/grpc/grpc-google-cloud-pubsub-v1/1.85.1/grpc-google-cloud-pubsub-v1-1.85.1.jar:/root/.m2/repository/com/google/api/grpc/grpc-google-cloud-pubsublite-v1/0.1.6/grpc-google-cloud-pubsublite-v1-0.1.6.jar:/root/.m2/repository/com/google/guava/guava/25.1-jre/guava-25.1-jre.jar:/root/.m2/repository/org/checkerframework/checker-qual/2.0.0/checker-qual-2.0.0.jar:/root/.m2/repository/io/netty/netty-handler/4.1.51.Final/netty-handler-4.1.51.Final.jar:/root/.m2/repository/io/netty/netty-common/4.1.51.Final/netty-common-4.1.51.Final.jar:/root/.m2/repository/io/netty/netty-resolver/4.1.51.Final/netty-resolver-4.1.51.Final.jar:/root/.m2/repository/io/netty/netty-buffer/4.1.51.Final/netty-buffer-4.1.51.Final.jar:/root/.m2/repository/io/netty/netty-transport/4.1.51.Final/netty-transport-4.1.51.Final.jar:/root/.m2/repository/io/netty/netty-codec/4.1.51.Final/netty-codec-4.1.51.Final.jar:/root/.m2/repository/io/netty/netty-tcnative-boringssl-static/2.0.33.Final/netty-tcnative-boringssl-static-2.0.33.Final.jar:/root/.m2/repository/com/google/api/grpc/proto-google-cloud-bigquerystorage-v1beta1/0.85.1/proto-google-cloud-bigquerystorage-v1beta1-0.85.1.jar:/root/.m2/repository/com/google/api/grpc/proto-google-cloud-bigtable-v2/1.9.1/proto-google-cloud-bigtable-v2-1.9.1.jar:/root/.m2/repository/com/google/api/grpc/proto-google-cloud-datastore-v1/0.85.0/proto-google-cloud-datastore-v1-0.85.0.jar:/root/.m2/repository/com/google/api/grpc/proto-google-cloud-pubsub-v1/1.85.1/proto-google-cloud-pubsub-v1-1.85.1.jar:/root/.m2/repository/com/google/api/grpc/proto-google-cloud-pubsublite-v1/0.1.6/proto-google-cloud-pubsublite-v1-0.1.6.jar:/root/.m2/repository/com/google/api/grpc/proto-google-cloud-spanner-admin-database-v1/1.59.0/proto-google-cloud-spanner-admin-database-v1-1.59.0.jar:/root/.m2/repository/com/google/api/grpc/proto-google-common-protos/1.17.0/proto-google-common-protos-1.17.0.jar:/root/.m2/repository/com/google/protobuf/protobuf-java/3.11.1/protobuf-java-3.11.1.jar:/root/.m2/repository/com/google/api-client/google-api-client/1.30.10/google-api-client-1.30.10.jar:/root/.m2/repository/com/google/oauth-client/google-oauth-client/1.31.0/google-oauth-client-1.31.0.jar:/root/.m2/repository/com/google/apis/google-api-services-bigquery/v2-rev20200719-1.30.10/google-api-services-bigquery-v2-rev20200719-1.30.10.jar:/root/.m2/repository/com/google/http-client/google-http-client/1.34.0/google-http-client-1.34.0.jar:/root/.m2/repository/org/apache/httpcomponents/httpclient/4.5.10/httpclient-4.5.10.jar:/root/.m2/repository/org/apache/httpcomponents/httpcore/4.4.12/httpcore-4.4.12.jar:/root/.m2/repository/com/google/j2objc/j2objc-annotations/1.3/j2objc-annotations-1.3.jar:/root/.m2/repository/io/opencensus/opencensus-api/0.24.0/opencensus-api-0.24.0.jar:/root/.m2/repository/io/opencensus/opencensus-contrib-http-util/0.24.0/opencensus-contrib-http-util-0.24.0.jar:/root/.m2/repository/com/google/apis/google-api-services-pubsub/v1-rev20200713-1.30.10/google-api-services-pubsub-v1-rev20200713-1.30.10.jar:/root/.m2/repository/joda-time/joda-time/2.10.5/joda-time-2.10.5.jar:/root/.m2/repository/org/slf4j/slf4j-api/1.7.30/slf4j-api-1.7.30.jar:/root/.m2/repository/org/slf4j/slf4j-jdk14/1.7.30/slf4j-jdk14-1.7.30.jar:/root/.m2/repository/org/hamcrest/hamcrest-core/2.1/hamcrest-core-2.1.jar:/root/.m2/repository/org/hamcrest/hamcrest/2.1/hamcrest-2.1.jar:/root/.m2/repository/org/hamcrest/hamcrest-library/2.1/hamcrest-library-2.1.jar:/root/.m2/repository/junit/junit/4.13-beta-3/junit-4.13-beta-3.jar:/root/.m2/repository/org/apache/beam/beam-runners-direct-java/2.25.0/beam-runners-direct-java-2.25.0.jar:/root/.m2/repository/args4j/args4j/2.33/args4j-2.33.jar:/root/.m2/repository/org/mockito/mockito-core/3.0.0/mockito-core-3.0.0.jar:/root/.m2/repository/net/bytebuddy/byte-buddy/1.9.10/byte-buddy-1.9.10.jar:/root/.m2/repository/net/bytebuddy/byte-buddy-agent/1.9.10/byte-buddy-agent-1.9.10.jar:/root/.m2/repository/org/objenesis/objenesis/2.6/objenesis-2.6.jar:/root/.m2/repository/com/microsoft/sqlserver/mssql-jdbc/8.2.1.jre8/mssql-jdbc-8.2.1.jre8.jar:/root/.m2/repository/org/apache/beam/beam-sdks-java-io-jdbc/2.22.0/beam-sdks-java-io-jdbc-2.22.0.jar:/root/.m2/repository/org/apache/commons/commons-dbcp2/2.6.0/commons-dbcp2-2.6.0.jar:/root/.m2/repository/org/apache/commons/commons-pool2/2.6.1/commons-pool2-2.6.1.jar:/root/.m2/repository/org/apache/beam/beam-runners-google-cloud-dataflow-java/2.11.0/beam-runners-google-cloud-dataflow-java-2.11.0.jar:/root/.m2/repository/org/apache/beam/beam-vendor-guava-20_0/0.1/beam-vendor-guava-20_0-0.1.jar:/root/.m2/repository/org/apache/beam/beam-runners-core-construction-java/2.11.0/beam-runners-core-construction-java-2.11.0.jar:/root/.m2/repository/org/apache/beam/beam-vendor-grpc-1_13_1/0.2/beam-vendor-grpc-1_13_1-0.2.jar:/root/.m2/repository/com/google/apis/google-api-services-dataflow/v1b3-rev20190126-1.27.0/google-api-services-dataflow-v1b3-rev20190126-1.27.0.jar:/root/.m2/repository/com/google/apis/google-api-services-clouddebugger/v2-rev20180801-1.27.0/google-api-services-clouddebugger-v2-rev20180801-1.27.0.jar:/root/.m2/repository/com/google/apis/google-api-services-storage/v1-rev20181013-1.27.0/google-api-services-storage-v1-rev20181013-1.27.0.jar:/root/.m2/repository/org/apache/beam/beam-runners-portability-java/2.25.0/beam-runners-portability-java-2.25.0.jar:/root/.m2/repository/org/apache/beam/beam-runners-java-fn-execution/2.25.0/beam-runners-java-fn-execution-2.25.0.jar:/root/.m2/repository/org/apache/beam/beam-sdks-java-fn-execution/2.25.0/beam-sdks-java-fn-execution-2.25.0.jar:/root/.m2/repository/org/apache/beam/beam-vendor-sdks-java-extensions-protobuf/2.25.0/beam-vendor-sdks-java-extensions-protobuf-2.25.0.jar:/root/.m2/repository/org/apache/beam/beam-runners-java-job-service/2.25.0/beam-runners-java-job-service-2.25.0.jar:/root/.m2/repository/org/apache/beam/beam-sdks-java-harness/2.25.0/beam-sdks-java-harness-2.25.0.jar:"/>
    <property name="java.vm.vendor" value="Oracle Corporation"/>
    <property name="sun.arch.data.model" value="64"/>
    <property name="java.vendor.url" value="http://java.oracle.com/"/>
    <property name="user.timezone" value="Etc/UTC"/>
    <property name="java.vm.specification.version" value="1.8"/>
    <property name="os.name" value="Linux"/>
    <property name="sun.java.launcher" value="SUN_STANDARD"/>
    <property name="sun.boot.library.path" value="/usr/local/openjdk-8/jre/lib/amd64"/>
    <property name="sun.java.command" value="/app/my-app/target/surefire/surefirebooter6385555933878178211.jar /app/my-app/target/surefire 2020-11-17T03-39-05_753-jvmRun1 surefire6454536002695126948tmp surefire_0448627508493075445tmp"/>
    <property name="surefire.test.class.path" value="/app/my-app/target/test-classes:/app/my-app/target/classes:/root/.m2/repository/org/apache/beam/beam-sdks-java-core/2.25.0/beam-sdks-java-core-2.25.0.jar:/root/.m2/repository/org/apache/beam/beam-model-pipeline/2.25.0/beam-model-pipeline-2.25.0.jar:/root/.m2/repository/com/google/errorprone/error_prone_annotations/2.3.3/error_prone_annotations-2.3.3.jar:/root/.m2/repository/commons-logging/commons-logging/1.2/commons-logging-1.2.jar:/root/.m2/repository/org/apache/logging/log4j/log4j-api/2.6.2/log4j-api-2.6.2.jar:/root/.m2/repository/org/conscrypt/conscrypt-openjdk-uber/1.3.0/conscrypt-openjdk-uber-1.3.0.jar:/root/.m2/repository/org/apache/beam/beam-model-job-management/2.25.0/beam-model-job-management-2.25.0.jar:/root/.m2/repository/org/apache/beam/beam-vendor-bytebuddy-1_10_8/0.1/beam-vendor-bytebuddy-1_10_8-0.1.jar:/root/.m2/repository/org/apache/beam/beam-vendor-grpc-1_26_0/0.3/beam-vendor-grpc-1_26_0-0.3.jar:/root/.m2/repository/org/apache/beam/beam-vendor-guava-26_0-jre/0.1/beam-vendor-guava-26_0-jre-0.1.jar:/root/.m2/repository/com/google/code/findbugs/jsr305/3.0.2/jsr305-3.0.2.jar:/root/.m2/repository/com/fasterxml/jackson/core/jackson-core/2.10.2/jackson-core-2.10.2.jar:/root/.m2/repository/com/fasterxml/jackson/core/jackson-annotations/2.10.2/jackson-annotations-2.10.2.jar:/root/.m2/repository/com/fasterxml/jackson/core/jackson-databind/2.10.2/jackson-databind-2.10.2.jar:/root/.m2/repository/org/apache/avro/avro/1.8.2/avro-1.8.2.jar:/root/.m2/repository/org/codehaus/jackson/jackson-core-asl/1.9.13/jackson-core-asl-1.9.13.jar:/root/.m2/repository/org/codehaus/jackson/jackson-mapper-asl/1.9.13/jackson-mapper-asl-1.9.13.jar:/root/.m2/repository/com/thoughtworks/paranamer/paranamer/2.7/paranamer-2.7.jar:/root/.m2/repository/org/apache/commons/commons-compress/1.8.1/commons-compress-1.8.1.jar:/root/.m2/repository/org/xerial/snappy/snappy-java/1.1.4/snappy-java-1.1.4.jar:/root/.m2/repository/org/tukaani/xz/1.8/xz-1.8.jar:/root/.m2/repository/org/apache/beam/beam-sdks-java-io-google-cloud-platform/2.25.0/beam-sdks-java-io-google-cloud-platform-2.25.0.jar:/root/.m2/repository/org/apache/beam/beam-sdks-java-expansion-service/2.25.0/beam-sdks-java-expansion-service-2.25.0.jar:/root/.m2/repository/org/apache/beam/beam-model-fn-execution/2.25.0/beam-model-fn-execution-2.25.0.jar:/root/.m2/repository/org/apache/beam/beam-sdks-java-extensions-google-cloud-platform-core/2.25.0/beam-sdks-java-extensions-google-cloud-platform-core-2.25.0.jar:/root/.m2/repository/com/google/cloud/bigdataoss/gcsio/2.1.5/gcsio-2.1.5.jar:/root/.m2/repository/com/google/apis/google-api-services-cloudresourcemanager/v1-rev20200720-1.30.10/google-api-services-cloudresourcemanager-v1-rev20200720-1.30.10.jar:/root/.m2/repository/org/apache/beam/beam-sdks-java-extensions-protobuf/2.25.0/beam-sdks-java-extensions-protobuf-2.25.0.jar:/root/.m2/repository/com/google/cloud/bigdataoss/util/2.1.5/util-2.1.5.jar:/root/.m2/repository/com/google/api-client/google-api-client-java6/1.30.10/google-api-client-java6-1.30.10.jar:/root/.m2/repository/com/google/api-client/google-api-client-jackson2/1.30.10/google-api-client-jackson2-1.30.10.jar:/root/.m2/repository/com/google/apis/google-api-services-iamcredentials/v1-rev20200821-1.30.10/google-api-services-iamcredentials-v1-rev20200821-1.30.10.jar:/root/.m2/repository/com/google/auto/value/auto-value-annotations/1.7.4/auto-value-annotations-1.7.4.jar:/root/.m2/repository/com/google/oauth-client/google-oauth-client-java6/1.31.0/google-oauth-client-java6-1.31.0.jar:/root/.m2/repository/com/google/flogger/google-extensions/0.5.1/google-extensions-0.5.1.jar:/root/.m2/repository/com/google/flogger/flogger-system-backend/0.5.1/flogger-system-backend-0.5.1.jar:/root/.m2/repository/com/google/api/gax/1.57.1/gax-1.57.1.jar:/root/.m2/repository/org/threeten/threetenbp/1.4.1/threetenbp-1.4.1.jar:/root/.m2/repository/com/google/api/api-common/1.9.3/api-common-1.9.3.jar:/root/.m2/repository/com/google/api/gax-grpc/1.57.1/gax-grpc-1.57.1.jar:/root/.m2/repository/io/grpc/grpc-protobuf/1.30.0/grpc-protobuf-1.30.0.jar:/root/.m2/repository/com/google/apis/google-api-services-healthcare/v1beta1-rev20200713-1.30.10/google-api-services-healthcare-v1beta1-rev20200713-1.30.10.jar:/root/.m2/repository/com/google/auth/google-auth-library-credentials/0.19.0/google-auth-library-credentials-0.19.0.jar:/root/.m2/repository/com/google/auth/google-auth-library-oauth2-http/0.19.0/google-auth-library-oauth2-http-0.19.0.jar:/root/.m2/repository/com/google/cloud/google-cloud-bigquerystorage/0.125.0-beta/google-cloud-bigquerystorage-0.125.0-beta.jar:/root/.m2/repository/com/google/api/grpc/proto-google-cloud-bigquerystorage-v1alpha2/0.90.0/proto-google-cloud-bigquerystorage-v1alpha2-0.90.0.jar:/root/.m2/repository/com/google/api/grpc/proto-google-cloud-bigquerystorage-v1beta2/0.90.0/proto-google-cloud-bigquerystorage-v1beta2-0.90.0.jar:/root/.m2/repository/com/google/api/grpc/proto-google-cloud-bigquerystorage-v1/0.90.0/proto-google-cloud-bigquerystorage-v1-0.90.0.jar:/root/.m2/repository/com/google/cloud/google-cloud-bigquery/1.106.0/google-cloud-bigquery-1.106.0.jar:/root/.m2/repository/com/google/cloud/bigtable/bigtable-client-core/1.16.0/bigtable-client-core-1.16.0.jar:/root/.m2/repository/com/google/cloud/google-cloud-bigtable/1.14.0/google-cloud-bigtable-1.14.0.jar:/root/.m2/repository/com/google/api/grpc/grpc-google-common-protos/1.18.0/grpc-google-common-protos-1.18.0.jar:/root/.m2/repository/com/google/api/grpc/grpc-google-cloud-bigtable-v2/1.14.0/grpc-google-cloud-bigtable-v2-1.14.0.jar:/root/.m2/repository/com/google/api/grpc/proto-google-cloud-bigtable-admin-v2/1.14.0/proto-google-cloud-bigtable-admin-v2-1.14.0.jar:/root/.m2/repository/com/google/api/grpc/grpc-google-cloud-bigtable-admin-v2/1.14.0/grpc-google-cloud-bigtable-admin-v2-1.14.0.jar:/root/.m2/repository/com/google/api/grpc/proto-google-iam-v1/0.13.0/proto-google-iam-v1-0.13.0.jar:/root/.m2/repository/com/google/cloud/google-cloud-core-http/1.93.7/google-cloud-core-http-1.93.7.jar:/root/.m2/repository/com/google/http-client/google-http-client-appengine/1.36.0/google-http-client-appengine-1.36.0.jar:/root/.m2/repository/com/google/api/gax-httpjson/0.74.1/gax-httpjson-0.74.1.jar:/root/.m2/repository/com/google/protobuf/protobuf-java-util/3.12.2/protobuf-java-util-3.12.2.jar:/root/.m2/repository/io/opencensus/opencensus-contrib-grpc-util/0.24.0/opencensus-contrib-grpc-util-0.24.0.jar:/root/.m2/repository/io/dropwizard/metrics/metrics-core/3.2.6/metrics-core-3.2.6.jar:/root/.m2/repository/commons-codec/commons-codec/1.14/commons-codec-1.14.jar:/root/.m2/repository/com/google/cloud/google-cloud-core/1.93.7/google-cloud-core-1.93.7.jar:/root/.m2/repository/com/google/cloud/google-cloud-core-grpc/1.93.7/google-cloud-core-grpc-1.93.7.jar:/root/.m2/repository/com/google/cloud/datastore/datastore-v1-proto-client/1.6.3/datastore-v1-proto-client-1.6.3.jar:/root/.m2/repository/com/google/http-client/google-http-client-protobuf/1.33.0/google-http-client-protobuf-1.33.0.jar:/root/.m2/repository/com/google/cloud/google-cloud-pubsublite/0.1.6/google-cloud-pubsublite-0.1.6.jar:/root/.m2/repository/com/google/code/gson/gson/2.8.6/gson-2.8.6.jar:/root/.m2/repository/org/codehaus/mojo/animal-sniffer-annotations/1.18/animal-sniffer-annotations-1.18.jar:/root/.m2/repository/com/google/android/annotations/4.1.1.4/annotations-4.1.1.4.jar:/root/.m2/repository/io/perfmark/perfmark-api/0.19.0/perfmark-api-0.19.0.jar:/root/.m2/repository/com/google/cloud/google-cloud-pubsub/1.105.0/google-cloud-pubsub-1.105.0.jar:/root/.m2/repository/io/grpc/grpc-protobuf-lite/1.29.0/grpc-protobuf-lite-1.29.0.jar:/root/.m2/repository/org/apache/commons/commons-lang3/3.5/commons-lang3-3.5.jar:/root/.m2/repository/com/google/flogger/flogger/0.5.1/flogger-0.5.1.jar:/root/.m2/repository/javax/annotation/javax.annotation-api/1.3.2/javax.annotation-api-1.3.2.jar:/root/.m2/repository/com/google/guava/failureaccess/1.0.1/failureaccess-1.0.1.jar:/root/.m2/repository/com/google/guava/listenablefuture/9999.0-empty-to-avoid-conflict-with-guava/listenablefuture-9999.0-empty-to-avoid-conflict-with-guava.jar:/root/.m2/repository/org/checkerframework/checker-compat-qual/2.5.5/checker-compat-qual-2.5.5.jar:/root/.m2/repository/com/google/cloud/google-cloud-spanner/1.59.0/google-cloud-spanner-1.59.0.jar:/root/.m2/repository/com/google/api/grpc/proto-google-cloud-spanner-admin-instance-v1/1.59.0/proto-google-cloud-spanner-admin-instance-v1-1.59.0.jar:/root/.m2/repository/com/google/api/grpc/proto-google-cloud-spanner-v1/1.59.0/proto-google-cloud-spanner-v1-1.59.0.jar:/root/.m2/repository/com/google/http-client/google-http-client-jackson2/1.34.0/google-http-client-jackson2-1.34.0.jar:/root/.m2/repository/io/grpc/grpc-alts/1.27.2/grpc-alts-1.27.2.jar:/root/.m2/repository/io/grpc/grpc-auth/1.27.2/grpc-auth-1.27.2.jar:/root/.m2/repository/io/grpc/grpc-api/1.27.2/grpc-api-1.27.2.jar:/root/.m2/repository/io/grpc/grpc-core/1.27.2/grpc-core-1.27.2.jar:/root/.m2/repository/io/grpc/grpc-context/1.27.2/grpc-context-1.27.2.jar:/root/.m2/repository/io/grpc/grpc-grpclb/1.27.2/grpc-grpclb-1.27.2.jar:/root/.m2/repository/io/grpc/grpc-netty/1.27.2/grpc-netty-1.27.2.jar:/root/.m2/repository/io/netty/netty-codec-http2/4.1.42.Final/netty-codec-http2-4.1.42.Final.jar:/root/.m2/repository/io/netty/netty-codec-http/4.1.42.Final/netty-codec-http-4.1.42.Final.jar:/root/.m2/repository/io/netty/netty-handler-proxy/4.1.42.Final/netty-handler-proxy-4.1.42.Final.jar:/root/.m2/repository/io/netty/netty-codec-socks/4.1.42.Final/netty-codec-socks-4.1.42.Final.jar:/root/.m2/repository/io/grpc/grpc-netty-shaded/1.27.2/grpc-netty-shaded-1.27.2.jar:/root/.m2/repository/io/grpc/grpc-stub/1.27.2/grpc-stub-1.27.2.jar:/root/.m2/repository/com/google/api/grpc/grpc-google-cloud-pubsub-v1/1.85.1/grpc-google-cloud-pubsub-v1-1.85.1.jar:/root/.m2/repository/com/google/api/grpc/grpc-google-cloud-pubsublite-v1/0.1.6/grpc-google-cloud-pubsublite-v1-0.1.6.jar:/root/.m2/repository/com/google/guava/guava/25.1-jre/guava-25.1-jre.jar:/root/.m2/repository/org/checkerframework/checker-qual/2.0.0/checker-qual-2.0.0.jar:/root/.m2/repository/io/netty/netty-handler/4.1.51.Final/netty-handler-4.1.51.Final.jar:/root/.m2/repository/io/netty/netty-common/4.1.51.Final/netty-common-4.1.51.Final.jar:/root/.m2/repository/io/netty/netty-resolver/4.1.51.Final/netty-resolver-4.1.51.Final.jar:/root/.m2/repository/io/netty/netty-buffer/4.1.51.Final/netty-buffer-4.1.51.Final.jar:/root/.m2/repository/io/netty/netty-transport/4.1.51.Final/netty-transport-4.1.51.Final.jar:/root/.m2/repository/io/netty/netty-codec/4.1.51.Final/netty-codec-4.1.51.Final.jar:/root/.m2/repository/io/netty/netty-tcnative-boringssl-static/2.0.33.Final/netty-tcnative-boringssl-static-2.0.33.Final.jar:/root/.m2/repository/com/google/api/grpc/proto-google-cloud-bigquerystorage-v1beta1/0.85.1/proto-google-cloud-bigquerystorage-v1beta1-0.85.1.jar:/root/.m2/repository/com/google/api/grpc/proto-google-cloud-bigtable-v2/1.9.1/proto-google-cloud-bigtable-v2-1.9.1.jar:/root/.m2/repository/com/google/api/grpc/proto-google-cloud-datastore-v1/0.85.0/proto-google-cloud-datastore-v1-0.85.0.jar:/root/.m2/repository/com/google/api/grpc/proto-google-cloud-pubsub-v1/1.85.1/proto-google-cloud-pubsub-v1-1.85.1.jar:/root/.m2/repository/com/google/api/grpc/proto-google-cloud-pubsublite-v1/0.1.6/proto-google-cloud-pubsublite-v1-0.1.6.jar:/root/.m2/repository/com/google/api/grpc/proto-google-cloud-spanner-admin-database-v1/1.59.0/proto-google-cloud-spanner-admin-database-v1-1.59.0.jar:/root/.m2/repository/com/google/api/grpc/proto-google-common-protos/1.17.0/proto-google-common-protos-1.17.0.jar:/root/.m2/repository/com/google/protobuf/protobuf-java/3.11.1/protobuf-java-3.11.1.jar:/root/.m2/repository/com/google/api-client/google-api-client/1.30.10/google-api-client-1.30.10.jar:/root/.m2/repository/com/google/oauth-client/google-oauth-client/1.31.0/google-oauth-client-1.31.0.jar:/root/.m2/repository/com/google/apis/google-api-services-bigquery/v2-rev20200719-1.30.10/google-api-services-bigquery-v2-rev20200719-1.30.10.jar:/root/.m2/repository/com/google/http-client/google-http-client/1.34.0/google-http-client-1.34.0.jar:/root/.m2/repository/org/apache/httpcomponents/httpclient/4.5.10/httpclient-4.5.10.jar:/root/.m2/repository/org/apache/httpcomponents/httpcore/4.4.12/httpcore-4.4.12.jar:/root/.m2/repository/com/google/j2objc/j2objc-annotations/1.3/j2objc-annotations-1.3.jar:/root/.m2/repository/io/opencensus/opencensus-api/0.24.0/opencensus-api-0.24.0.jar:/root/.m2/repository/io/opencensus/opencensus-contrib-http-util/0.24.0/opencensus-contrib-http-util-0.24.0.jar:/root/.m2/repository/com/google/apis/google-api-services-pubsub/v1-rev20200713-1.30.10/google-api-services-pubsub-v1-rev20200713-1.30.10.jar:/root/.m2/repository/joda-time/joda-time/2.10.5/joda-time-2.10.5.jar:/root/.m2/repository/org/slf4j/slf4j-api/1.7.30/slf4j-api-1.7.30.jar:/root/.m2/repository/org/slf4j/slf4j-jdk14/1.7.30/slf4j-jdk14-1.7.30.jar:/root/.m2/repository/org/hamcrest/hamcrest-core/2.1/hamcrest-core-2.1.jar:/root/.m2/repository/org/hamcrest/hamcrest/2.1/hamcrest-2.1.jar:/root/.m2/repository/org/hamcrest/hamcrest-library/2.1/hamcrest-library-2.1.jar:/root/.m2/repository/junit/junit/4.13-beta-3/junit-4.13-beta-3.jar:/root/.m2/repository/org/apache/beam/beam-runners-direct-java/2.25.0/beam-runners-direct-java-2.25.0.jar:/root/.m2/repository/args4j/args4j/2.33/args4j-2.33.jar:/root/.m2/repository/org/mockito/mockito-core/3.0.0/mockito-core-3.0.0.jar:/root/.m2/repository/net/bytebuddy/byte-buddy/1.9.10/byte-buddy-1.9.10.jar:/root/.m2/repository/net/bytebuddy/byte-buddy-agent/1.9.10/byte-buddy-agent-1.9.10.jar:/root/.m2/repository/org/objenesis/objenesis/2.6/objenesis-2.6.jar:/root/.m2/repository/com/microsoft/sqlserver/mssql-jdbc/8.2.1.jre8/mssql-jdbc-8.2.1.jre8.jar:/root/.m2/repository/org/apache/beam/beam-sdks-java-io-jdbc/2.22.0/beam-sdks-java-io-jdbc-2.22.0.jar:/root/.m2/repository/org/apache/commons/commons-dbcp2/2.6.0/commons-dbcp2-2.6.0.jar:/root/.m2/repository/org/apache/commons/commons-pool2/2.6.1/commons-pool2-2.6.1.jar:/root/.m2/repository/org/apache/beam/beam-runners-google-cloud-dataflow-java/2.11.0/beam-runners-google-cloud-dataflow-java-2.11.0.jar:/root/.m2/repository/org/apache/beam/beam-vendor-guava-20_0/0.1/beam-vendor-guava-20_0-0.1.jar:/root/.m2/repository/org/apache/beam/beam-runners-core-construction-java/2.11.0/beam-runners-core-construction-java-2.11.0.jar:/root/.m2/repository/org/apache/beam/beam-vendor-grpc-1_13_1/0.2/beam-vendor-grpc-1_13_1-0.2.jar:/root/.m2/repository/com/google/apis/google-api-services-dataflow/v1b3-rev20190126-1.27.0/google-api-services-dataflow-v1b3-rev20190126-1.27.0.jar:/root/.m2/repository/com/google/apis/google-api-services-clouddebugger/v2-rev20180801-1.27.0/google-api-services-clouddebugger-v2-rev20180801-1.27.0.jar:/root/.m2/repository/com/google/apis/google-api-services-storage/v1-rev20181013-1.27.0/google-api-services-storage-v1-rev20181013-1.27.0.jar:/root/.m2/repository/org/apache/beam/beam-runners-portability-java/2.25.0/beam-runners-portability-java-2.25.0.jar:/root/.m2/repository/org/apache/beam/beam-runners-java-fn-execution/2.25.0/beam-runners-java-fn-execution-2.25.0.jar:/root/.m2/repository/org/apache/beam/beam-sdks-java-fn-execution/2.25.0/beam-sdks-java-fn-execution-2.25.0.jar:/root/.m2/repository/org/apache/beam/beam-vendor-sdks-java-extensions-protobuf/2.25.0/beam-vendor-sdks-java-extensions-protobuf-2.25.0.jar:/root/.m2/repository/org/apache/beam/beam-runners-java-job-service/2.25.0/beam-runners-java-job-service-2.25.0.jar:/root/.m2/repository/org/apache/beam/beam-sdks-java-harness/2.25.0/beam-sdks-java-harness-2.25.0.jar:"/>
    <property name="sun.cpu.endian" value="little"/>
    <property name="user.home" value="/root"/>
    <property name="user.language" value="en"/>
    <property name="java.specification.vendor" value="Oracle Corporation"/>
    <property name="java.home" value="/usr/local/openjdk-8/jre"/>
    <property name="basedir" value="/app/my-app"/>
    <property name="file.separator" value="/"/>
    <property name="line.separator" value="&#10;"/>
    <property name="java.vm.specification.vendor" value="Oracle Corporation"/>
    <property name="java.specification.name" value="Java Platform API Specification"/>
    <property name="java.awt.graphicsenv" value="sun.awt.X11GraphicsEnvironment"/>
    <property name="surefire.real.class.path" value="/app/my-app/target/surefire/surefirebooter6385555933878178211.jar"/>
    <property name="sun.boot.class.path" value="/usr/local/openjdk-8/jre/lib/resources.jar:/usr/local/openjdk-8/jre/lib/rt.jar:/usr/local/openjdk-8/jre/lib/sunrsasign.jar:/usr/local/openjdk-8/jre/lib/jsse.jar:/usr/local/openjdk-8/jre/lib/jce.jar:/usr/local/openjdk-8/jre/lib/charsets.jar:/usr/local/openjdk-8/jre/lib/jfr.jar:/usr/local/openjdk-8/jre/classes"/>
    <property name="sun.management.compiler" value="HotSpot 64-Bit Tiered Compilers"/>
    <property name="java.runtime.version" value="1.8.0_272-b10"/>
    <property name="user.name" value="root"/>
    <property name="path.separator" value=":"/>
    <property name="os.version" value="5.8.18-1-MANJARO"/>
    <property name="java.endorsed.dirs" value="/usr/local/openjdk-8/jre/lib/endorsed"/>
    <property name="java.runtime.name" value="OpenJDK Runtime Environment"/>
    <property name="file.encoding" value="UTF-8"/>
    <property name="java.vm.name" value="OpenJDK 64-Bit Server VM"/>
    <property name="localRepository" value="/root/.m2/repository"/>
    <property name="java.vendor.url.bug" value="http://bugreport.sun.com/bugreport/"/>
    <property name="java.io.tmpdir" value="/tmp"/>
    <property name="java.version" value="1.8.0_272"/>
    <property name="user.dir" value="/app/my-app"/>
    <property name="os.arch" value="amd64"/>
    <property name="java.vm.specification.name" value="Java Virtual Machine Specification"/>
    <property name="java.awt.printerjob" value="sun.print.PSPrinterJob"/>
    <property name="sun.os.patch.level" value="unknown"/>
    <property name="java.library.path" value="/usr/java/packages/lib/amd64:/usr/lib64:/lib64:/lib:/usr/lib"/>
    <property name="java.vm.info" value="mixed mode"/>
    <property name="java.vendor" value="Oracle Corporation"/>
    <property name="java.vm.version" value="25.272-b10"/>
    <property name="java.ext.dirs" value="/usr/local/openjdk-8/jre/lib/ext:/usr/java/packages/lib/ext"/>
    <property name="sun.io.unicode.encoding" value="UnicodeLittle"/>
    <property name="java.class.version" value="52.0"/>
  </properties>
  <testcase name="testTeamScoresDroppablyLate" classname="org.apache.beam.examples.complete.game.LeaderBoardTest" time="15.014"/>
  <testcase name="testTeamScoresObservablyLate" classname="org.apache.beam.examples.complete.game.LeaderBoardTest" time="23.241"/>
  <testcase name="testTeamScoresOnTime" classname="org.apache.beam.examples.complete.game.LeaderBoardTest" time="12.221"/>
  <testcase name="testTeamScoresSpeculative" classname="org.apache.beam.examples.complete.game.LeaderBoardTest" time="13.206"/>
  <testcase name="testLeaderBoardOptions" classname="org.apache.beam.examples.complete.game.LeaderBoardTest" time="1.134"/>
  <testcase name="testUserScore" classname="org.apache.beam.examples.complete.game.LeaderBoardTest" time="9.761"/>
  <testcase name="testTeamScoresUnobservablyLate" classname="org.apache.beam.examples.complete.game.LeaderBoardTest" time="4.223"/>
</testsuite>